<?xml version="1.0" encoding="UTF-8" standalone="no"?>
<!DOCTYPE svg PUBLIC "-//W3C//DTD SVG 1.1//EN" "http://www.w3.org/Graphics/SVG/1.1/DTD/svg11.dtd">
<svg width="100%" height="100%" viewBox="0 0 7306 7306" version="1.1" xmlns="http://www.w3.org/2000/svg" xmlns:xlink="http://www.w3.org/1999/xlink" xml:space="preserve" xmlns:serif="http://www.serif.com/" style="fill-rule:evenodd;clip-rule:evenodd;stroke-linejoin:round;stroke-miterlimit:2;">
    <g transform="matrix(1,0,0,1,117.695,18.3052)">
        <g transform="matrix(1,0,0,1,-1150.68,-3556.69)">
            <g transform="matrix(0.502614,0,0,0.502614,1618.89,2098.11)">
                <g transform="matrix(-548.223,1132.63,-1132.63,-548.223,8862.46,10996.6)">
                    <g>
                        <path d="M0.444,-0.183C0.444,-0.214 0.433,-0.238 0.411,-0.255C0.389,-0.272 0.349,-0.289 0.292,-0.307C0.235,-0.324 0.189,-0.343 0.155,-0.364C0.09,-0.405 0.058,-0.458 0.058,-0.523C0.058,-0.581 0.081,-0.628 0.128,-0.665C0.175,-0.702 0.236,-0.721 0.31,-0.721C0.36,-0.721 0.404,-0.712 0.442,-0.693C0.481,-0.675 0.512,-0.649 0.534,-0.615C0.556,-0.582 0.567,-0.544 0.567,-0.503L0.444,-0.503C0.444,-0.541 0.432,-0.57 0.409,-0.591C0.386,-0.612 0.352,-0.622 0.309,-0.622C0.269,-0.622 0.237,-0.613 0.215,-0.596C0.193,-0.579 0.182,-0.555 0.182,-0.524C0.182,-0.498 0.194,-0.476 0.218,-0.459C0.242,-0.441 0.282,-0.424 0.337,-0.408C0.392,-0.392 0.437,-0.373 0.47,-0.352C0.504,-0.331 0.528,-0.307 0.544,-0.28C0.56,-0.252 0.567,-0.221 0.567,-0.184C0.567,-0.125 0.545,-0.078 0.499,-0.043C0.454,-0.008 0.392,0.01 0.314,0.01C0.263,0.01 0.216,0 0.173,-0.019C0.129,-0.038 0.096,-0.064 0.072,-0.098C0.048,-0.131 0.036,-0.17 0.036,-0.215L0.16,-0.215C0.16,-0.174 0.173,-0.143 0.2,-0.121C0.226,-0.099 0.265,-0.088 0.314,-0.088C0.357,-0.088 0.39,-0.097 0.411,-0.114C0.433,-0.131 0.444,-0.154 0.444,-0.183Z" style="fill-rule:nonzero;"/>
                    </g>
                </g>
                <g transform="matrix(-786.451,982.288,-982.288,-786.451,8579.92,11595.2)">
                    <g>
                        <path d="M0.376,-0C0.371,-0.01 0.367,-0.027 0.363,-0.049C0.325,-0.01 0.279,0.01 0.224,0.01C0.171,0.01 0.128,-0.005 0.094,-0.036C0.061,-0.066 0.044,-0.103 0.044,-0.148C0.044,-0.204 0.065,-0.247 0.107,-0.278C0.149,-0.308 0.208,-0.323 0.286,-0.323L0.359,-0.323L0.359,-0.357C0.359,-0.385 0.351,-0.407 0.336,-0.423C0.321,-0.44 0.297,-0.448 0.266,-0.448C0.239,-0.448 0.217,-0.441 0.2,-0.427C0.182,-0.414 0.174,-0.397 0.174,-0.376L0.055,-0.376C0.055,-0.405 0.065,-0.432 0.084,-0.457C0.103,-0.483 0.129,-0.502 0.162,-0.517C0.195,-0.531 0.232,-0.538 0.273,-0.538C0.335,-0.538 0.384,-0.523 0.421,-0.491C0.458,-0.46 0.477,-0.417 0.478,-0.36L0.478,-0.122C0.478,-0.075 0.484,-0.037 0.498,-0.008L0.498,-0L0.376,-0ZM0.246,-0.085C0.27,-0.085 0.292,-0.091 0.312,-0.103C0.333,-0.114 0.348,-0.129 0.359,-0.148L0.359,-0.248L0.295,-0.248C0.251,-0.248 0.218,-0.24 0.196,-0.225C0.174,-0.21 0.163,-0.188 0.163,-0.16C0.163,-0.137 0.17,-0.119 0.185,-0.106C0.2,-0.092 0.221,-0.085 0.246,-0.085Z" style="fill-rule:nonzero;"/>
                    </g>
                </g>
                <g transform="matrix(-1029.72,723.239,-723.239,-1029.72,8243.37,12083.3)">
                    <g>
                        <path d="M0.172,-0.528L0.176,-0.473C0.213,-0.516 0.264,-0.538 0.328,-0.538C0.399,-0.538 0.447,-0.511 0.473,-0.457C0.512,-0.511 0.566,-0.538 0.635,-0.538C0.694,-0.538 0.737,-0.522 0.765,-0.49C0.794,-0.458 0.808,-0.41 0.809,-0.347L0.809,-0L0.69,-0L0.69,-0.344C0.69,-0.377 0.683,-0.402 0.668,-0.417C0.654,-0.433 0.63,-0.441 0.596,-0.441C0.569,-0.441 0.547,-0.434 0.53,-0.419C0.512,-0.405 0.5,-0.386 0.494,-0.362L0.494,-0L0.375,-0L0.375,-0.348C0.374,-0.41 0.342,-0.441 0.28,-0.441C0.233,-0.441 0.199,-0.422 0.179,-0.383L0.179,-0L0.061,-0L0.061,-0.528L0.172,-0.528Z" style="fill-rule:nonzero;"/>
                    </g>
                </g>
                <g transform="matrix(-1230.71,262.174,-262.174,-1230.71,7225.96,12743.9)">
                    <g>
                        <path d="M0.637,-0L0.514,-0L0.514,-0.316L0.196,-0.316L0.196,-0L0.072,-0L0.072,-0.711L0.196,-0.711L0.196,-0.415L0.514,-0.415L0.514,-0.711L0.637,-0.711L0.637,-0Z" style="fill-rule:nonzero;"/>
                    </g>
                </g>
                <g transform="matrix(-1257.34,-49.8529,49.8529,-1257.34,6445.32,12908.7)">
                    <g>
                        <path d="M0.293,0.01C0.218,0.01 0.157,-0.014 0.111,-0.061C0.064,-0.109 0.041,-0.172 0.041,-0.25L0.041,-0.265C0.041,-0.318 0.051,-0.365 0.071,-0.406C0.091,-0.448 0.12,-0.48 0.157,-0.503C0.194,-0.527 0.235,-0.538 0.28,-0.538C0.352,-0.538 0.407,-0.515 0.447,-0.469C0.486,-0.423 0.505,-0.358 0.505,-0.274L0.505,-0.227L0.16,-0.227C0.164,-0.183 0.178,-0.148 0.204,-0.123C0.229,-0.098 0.262,-0.085 0.3,-0.085C0.355,-0.085 0.399,-0.107 0.433,-0.151L0.497,-0.09C0.476,-0.058 0.448,-0.034 0.412,-0.016C0.377,0.001 0.337,0.01 0.293,0.01ZM0.279,-0.443C0.247,-0.443 0.22,-0.431 0.2,-0.409C0.18,-0.386 0.168,-0.354 0.162,-0.313L0.388,-0.313L0.388,-0.322C0.386,-0.362 0.375,-0.392 0.356,-0.412C0.338,-0.433 0.312,-0.443 0.279,-0.443Z" style="fill-rule:nonzero;"/>
                    </g>
                </g>
                <g transform="matrix(-1217.08,-319.529,319.529,-1217.08,5867.24,12900.5)">
                    <g>
                        <path d="M0.523,-0.259C0.523,-0.177 0.505,-0.112 0.468,-0.063C0.431,-0.015 0.381,0.01 0.318,0.01C0.26,0.01 0.214,-0.009 0.179,-0.047L0.179,0.203L0.061,0.203L0.061,-0.528L0.17,-0.528L0.175,-0.475C0.21,-0.517 0.257,-0.538 0.317,-0.538C0.381,-0.538 0.432,-0.514 0.469,-0.466C0.505,-0.418 0.523,-0.351 0.523,-0.266L0.523,-0.259ZM0.405,-0.269C0.405,-0.322 0.395,-0.364 0.374,-0.395C0.353,-0.425 0.323,-0.441 0.284,-0.441C0.235,-0.441 0.2,-0.421 0.179,-0.381L0.179,-0.146C0.201,-0.105 0.236,-0.085 0.285,-0.085C0.322,-0.085 0.352,-0.1 0.373,-0.131C0.395,-0.161 0.405,-0.207 0.405,-0.269Z" style="fill-rule:nonzero;"/>
                    </g>
                </g>
                <g transform="matrix(-1117.21,-579.003,579.003,-1117.21,5273.66,12759)">
                    <g>
                        <path d="M0.524,-0.259C0.524,-0.177 0.506,-0.111 0.469,-0.063C0.433,-0.014 0.382,0.01 0.318,0.01C0.257,0.01 0.208,-0.013 0.174,-0.057L0.168,-0L0.061,-0L0.061,-0.75L0.179,-0.75L0.179,-0.478C0.213,-0.518 0.259,-0.538 0.317,-0.538C0.382,-0.538 0.432,-0.514 0.469,-0.466C0.506,-0.418 0.524,-0.352 0.524,-0.266L0.524,-0.259ZM0.406,-0.269C0.406,-0.326 0.396,-0.369 0.375,-0.398C0.355,-0.427 0.326,-0.441 0.288,-0.441C0.236,-0.441 0.2,-0.418 0.179,-0.374L0.179,-0.156C0.2,-0.11 0.237,-0.087 0.289,-0.087C0.326,-0.087 0.354,-0.101 0.375,-0.128C0.395,-0.156 0.405,-0.198 0.406,-0.254L0.406,-0.269Z" style="fill-rule:nonzero;"/>
                    </g>
                </g>
                <g transform="matrix(-969.246,-802.468,802.468,-969.246,4724.41,12486.8)">
                    <g>
                        <path d="M0.381,-0.052C0.346,-0.011 0.297,0.01 0.232,0.01C0.175,0.01 0.132,-0.007 0.102,-0.041C0.073,-0.074 0.058,-0.123 0.058,-0.186L0.058,-0.528L0.177,-0.528L0.177,-0.188C0.177,-0.12 0.205,-0.087 0.26,-0.087C0.318,-0.087 0.357,-0.108 0.377,-0.149L0.377,-0.528L0.496,-0.528L0.496,-0L0.384,-0L0.381,-0.052Z" style="fill-rule:nonzero;"/>
                    </g>
                </g>
                <g transform="matrix(-809.675,-963.235,963.235,-809.675,4262.5,12104.3)">
                    <g>
                        <path d="M0.337,-0.42C0.322,-0.423 0.306,-0.424 0.289,-0.424C0.235,-0.424 0.198,-0.403 0.179,-0.361L0.179,-0L0.061,-0L0.061,-0.528L0.174,-0.528L0.177,-0.469C0.205,-0.515 0.245,-0.538 0.296,-0.538C0.313,-0.538 0.327,-0.536 0.338,-0.531L0.337,-0.42Z" style="fill-rule:nonzero;"/>
                    </g>
                </g>
                <g transform="matrix(-647.133,-1079.17,1079.17,-647.133,4025.84,11854.3)">
                    <g>
                        <path d="M0.171,-0.528L0.174,-0.467C0.213,-0.514 0.265,-0.538 0.328,-0.538C0.438,-0.538 0.494,-0.475 0.496,-0.349L0.496,-0L0.377,-0L0.377,-0.342C0.377,-0.376 0.37,-0.401 0.356,-0.417C0.341,-0.433 0.318,-0.441 0.285,-0.441C0.237,-0.441 0.201,-0.419 0.178,-0.376L0.178,-0L0.059,-0L0.059,-0.528L0.171,-0.528Z" style="fill-rule:nonzero;"/>
                    </g>
                </g>
                <g transform="matrix(-368.438,-1203.18,1203.18,-368.438,3635.54,11142.9)">
                    <g>
                        <rect x="0.035" y="-0.35" width="0.256" height="0.096"/>
                    </g>
                </g>
                <g transform="matrix(-53.8366,-1257.18,1257.18,-53.8366,3474.07,10638.6)">
                    <g>
                        <path d="M0.444,-0.183C0.444,-0.214 0.433,-0.238 0.411,-0.255C0.389,-0.272 0.349,-0.289 0.292,-0.307C0.235,-0.324 0.189,-0.343 0.155,-0.364C0.09,-0.405 0.058,-0.458 0.058,-0.523C0.058,-0.581 0.081,-0.628 0.128,-0.665C0.175,-0.702 0.236,-0.721 0.31,-0.721C0.36,-0.721 0.404,-0.712 0.442,-0.693C0.481,-0.675 0.512,-0.649 0.534,-0.615C0.556,-0.582 0.567,-0.544 0.567,-0.503L0.444,-0.503C0.444,-0.541 0.432,-0.57 0.409,-0.591C0.386,-0.612 0.352,-0.622 0.309,-0.622C0.269,-0.622 0.237,-0.613 0.215,-0.596C0.193,-0.579 0.182,-0.555 0.182,-0.524C0.182,-0.498 0.194,-0.476 0.218,-0.459C0.242,-0.441 0.282,-0.424 0.337,-0.408C0.392,-0.392 0.437,-0.373 0.47,-0.352C0.504,-0.331 0.528,-0.307 0.544,-0.28C0.56,-0.252 0.567,-0.221 0.567,-0.184C0.567,-0.125 0.545,-0.078 0.499,-0.043C0.454,-0.008 0.392,0.01 0.314,0.01C0.263,0.01 0.216,0 0.173,-0.019C0.129,-0.038 0.096,-0.064 0.072,-0.098C0.048,-0.131 0.036,-0.17 0.036,-0.215L0.16,-0.215C0.16,-0.174 0.173,-0.143 0.2,-0.121C0.226,-0.099 0.265,-0.088 0.314,-0.088C0.357,-0.088 0.39,-0.097 0.411,-0.114C0.433,-0.131 0.444,-0.154 0.444,-0.183Z" style="fill-rule:nonzero;"/>
                    </g>
                </g>
                <g transform="matrix(234.14,-1236.35,1236.35,234.14,3436.89,9975.36)">
                    <g>
                        <path d="M0.039,-0.269C0.039,-0.321 0.049,-0.367 0.069,-0.409C0.09,-0.45 0.119,-0.482 0.156,-0.505C0.193,-0.527 0.236,-0.538 0.284,-0.538C0.355,-0.538 0.413,-0.515 0.457,-0.469C0.502,-0.423 0.526,-0.362 0.529,-0.287L0.53,-0.259C0.53,-0.207 0.52,-0.16 0.5,-0.119C0.48,-0.078 0.451,-0.046 0.414,-0.024C0.377,-0.001 0.333,0.01 0.285,0.01C0.21,0.01 0.15,-0.015 0.106,-0.065C0.061,-0.114 0.039,-0.181 0.039,-0.263L0.039,-0.269ZM0.157,-0.259C0.157,-0.204 0.168,-0.162 0.191,-0.131C0.213,-0.1 0.245,-0.085 0.285,-0.085C0.325,-0.085 0.356,-0.101 0.378,-0.132C0.4,-0.163 0.412,-0.209 0.412,-0.269C0.412,-0.322 0.4,-0.365 0.377,-0.396C0.354,-0.427 0.323,-0.443 0.284,-0.443C0.245,-0.443 0.214,-0.427 0.191,-0.397C0.169,-0.366 0.157,-0.32 0.157,-0.259Z" style="fill-rule:nonzero;"/>
                    </g>
                </g>
                <g transform="matrix(452.894,-1174,1174,452.894,3553.77,9369.19)">
                    <g>
                        <path d="M0.103,-0L0.103,-0.44L0.022,-0.44L0.022,-0.528L0.103,-0.528L0.103,-0.577C0.103,-0.635 0.119,-0.681 0.151,-0.712C0.184,-0.744 0.229,-0.76 0.288,-0.76C0.309,-0.76 0.331,-0.757 0.354,-0.751L0.352,-0.659C0.339,-0.661 0.323,-0.663 0.306,-0.663C0.25,-0.663 0.221,-0.633 0.221,-0.575L0.221,-0.528L0.329,-0.528L0.329,-0.44L0.221,-0.44L0.221,-0L0.103,-0Z" style="fill-rule:nonzero;"/>
                    </g>
                </g>
                <g transform="matrix(579.003,-1117.21,1117.21,579.003,3673.27,9046.14)">
                    <g>
                        <path d="M0.209,-0.657L0.209,-0.528L0.303,-0.528L0.303,-0.44L0.209,-0.44L0.209,-0.146C0.209,-0.125 0.213,-0.111 0.221,-0.102C0.229,-0.093 0.244,-0.088 0.264,-0.088C0.278,-0.088 0.292,-0.09 0.306,-0.093L0.306,-0.001C0.279,0.006 0.253,0.01 0.228,0.01C0.136,0.01 0.091,-0.041 0.091,-0.141L0.091,-0.44L0.004,-0.44L0.004,-0.528L0.091,-0.528L0.091,-0.657L0.209,-0.657Z" style="fill-rule:nonzero;"/>
                    </g>
                </g>
                <g transform="matrix(802.468,-969.246,969.246,802.468,3790.78,8741.37)">
                    <g>
                        <path d="M0.525,-0.164L0.609,-0.528L0.725,-0.528L0.581,-0L0.483,-0L0.37,-0.363L0.258,-0L0.161,-0L0.016,-0.528L0.132,-0.528L0.217,-0.167L0.326,-0.528L0.415,-0.528L0.525,-0.164Z" style="fill-rule:nonzero;"/>
                    </g>
                </g>
                <g transform="matrix(1020.98,-735.528,735.528,1020.98,4327.16,8099.46)">
                    <g>
                        <path d="M0.376,-0C0.371,-0.01 0.367,-0.027 0.363,-0.049C0.325,-0.01 0.279,0.01 0.224,0.01C0.171,0.01 0.128,-0.005 0.094,-0.036C0.061,-0.066 0.044,-0.103 0.044,-0.148C0.044,-0.204 0.065,-0.247 0.107,-0.278C0.149,-0.308 0.208,-0.323 0.286,-0.323L0.359,-0.323L0.359,-0.357C0.359,-0.385 0.351,-0.407 0.336,-0.423C0.321,-0.44 0.297,-0.448 0.266,-0.448C0.239,-0.448 0.217,-0.441 0.2,-0.427C0.182,-0.414 0.174,-0.397 0.174,-0.376L0.055,-0.376C0.055,-0.405 0.065,-0.432 0.084,-0.457C0.103,-0.483 0.129,-0.502 0.162,-0.517C0.195,-0.531 0.232,-0.538 0.273,-0.538C0.335,-0.538 0.384,-0.523 0.421,-0.491C0.458,-0.46 0.477,-0.417 0.478,-0.36L0.478,-0.122C0.478,-0.075 0.484,-0.037 0.498,-0.008L0.498,-0L0.376,-0ZM0.246,-0.085C0.27,-0.085 0.292,-0.091 0.312,-0.103C0.333,-0.114 0.348,-0.129 0.359,-0.148L0.359,-0.248L0.295,-0.248C0.251,-0.248 0.218,-0.24 0.196,-0.225C0.174,-0.21 0.163,-0.188 0.163,-0.16C0.163,-0.137 0.17,-0.119 0.185,-0.106C0.2,-0.092 0.221,-0.085 0.246,-0.085Z" style="fill-rule:nonzero;"/>
                    </g>
                </g>
                <g transform="matrix(1135.12,-543.044,543.044,1135.12,4799.33,7758.25)">
                    <g>
                        <path d="M0.337,-0.42C0.322,-0.423 0.306,-0.424 0.289,-0.424C0.235,-0.424 0.198,-0.403 0.179,-0.361L0.179,-0L0.061,-0L0.061,-0.528L0.174,-0.528L0.177,-0.469C0.205,-0.515 0.245,-0.538 0.296,-0.538C0.313,-0.538 0.327,-0.536 0.338,-0.531L0.337,-0.42Z" style="fill-rule:nonzero;"/>
                    </g>
                </g>
                <g transform="matrix(1205.17,-361.899,361.899,1205.17,5090.81,7596.35)">
                    <g>
                        <path d="M0.293,0.01C0.218,0.01 0.157,-0.014 0.111,-0.061C0.064,-0.109 0.041,-0.172 0.041,-0.25L0.041,-0.265C0.041,-0.318 0.051,-0.365 0.071,-0.406C0.091,-0.448 0.12,-0.48 0.157,-0.503C0.194,-0.527 0.235,-0.538 0.28,-0.538C0.352,-0.538 0.407,-0.515 0.447,-0.469C0.486,-0.423 0.505,-0.358 0.505,-0.274L0.505,-0.227L0.16,-0.227C0.164,-0.183 0.178,-0.148 0.204,-0.123C0.229,-0.098 0.262,-0.085 0.3,-0.085C0.355,-0.085 0.399,-0.107 0.433,-0.151L0.497,-0.09C0.476,-0.058 0.448,-0.034 0.412,-0.016C0.377,0.001 0.337,0.01 0.293,0.01ZM0.279,-0.443C0.247,-0.443 0.22,-0.431 0.2,-0.409C0.18,-0.386 0.168,-0.354 0.162,-0.313L0.388,-0.313L0.388,-0.322C0.386,-0.362 0.375,-0.392 0.356,-0.412C0.338,-0.433 0.312,-0.443 0.279,-0.443Z" style="fill-rule:nonzero;"/>
                    </g>
                </g>
                <g transform="matrix(1258.02,27.9279,-27.9279,1258.02,5850.93,7372.82)">
                    <g>
                        <path d="M0.072,-0L0.072,-0.711L0.282,-0.711C0.345,-0.711 0.401,-0.697 0.449,-0.669C0.498,-0.641 0.536,-0.601 0.563,-0.55C0.589,-0.498 0.603,-0.439 0.603,-0.373L0.603,-0.337C0.603,-0.27 0.589,-0.211 0.562,-0.16C0.535,-0.109 0.497,-0.069 0.448,-0.042C0.398,-0.014 0.341,-0 0.277,-0L0.072,-0ZM0.196,-0.611L0.196,-0.099L0.276,-0.099C0.341,-0.099 0.391,-0.119 0.426,-0.159C0.46,-0.2 0.478,-0.258 0.479,-0.334L0.479,-0.374C0.479,-0.451 0.462,-0.51 0.428,-0.55C0.395,-0.591 0.346,-0.611 0.282,-0.611L0.196,-0.611Z" style="fill-rule:nonzero;"/>
                    </g>
                </g>
                <g transform="matrix(1217.58,317.631,-317.631,1217.58,6577.95,7383.88)">
                    <g>
                        <path d="M0.293,0.01C0.218,0.01 0.157,-0.014 0.111,-0.061C0.064,-0.109 0.041,-0.172 0.041,-0.25L0.041,-0.265C0.041,-0.318 0.051,-0.365 0.071,-0.406C0.091,-0.448 0.12,-0.48 0.157,-0.503C0.194,-0.527 0.235,-0.538 0.28,-0.538C0.352,-0.538 0.407,-0.515 0.447,-0.469C0.486,-0.423 0.505,-0.358 0.505,-0.274L0.505,-0.227L0.16,-0.227C0.164,-0.183 0.178,-0.148 0.204,-0.123C0.229,-0.098 0.262,-0.085 0.3,-0.085C0.355,-0.085 0.399,-0.107 0.433,-0.151L0.497,-0.09C0.476,-0.058 0.448,-0.034 0.412,-0.016C0.377,0.001 0.337,0.01 0.293,0.01ZM0.279,-0.443C0.247,-0.443 0.22,-0.431 0.2,-0.409C0.18,-0.386 0.168,-0.354 0.162,-0.313L0.388,-0.313L0.388,-0.322C0.386,-0.362 0.375,-0.392 0.356,-0.412C0.338,-0.433 0.312,-0.443 0.279,-0.443Z" style="fill-rule:nonzero;"/>
                    </g>
                </g>
                <g transform="matrix(1133.46,546.498,-546.498,1133.46,7129.41,7519.19)">
                    <g>
                        <path d="M0.247,-0.15L0.359,-0.528L0.481,-0.528L0.298,-0L0.195,-0L0.011,-0.528L0.134,-0.528L0.247,-0.15Z" style="fill-rule:nonzero;"/>
                    </g>
                </g>
                <g transform="matrix(1003.65,759.005,-759.005,1003.65,7600.42,7731.29)">
                    <g>
                        <path d="M0.293,0.01C0.218,0.01 0.157,-0.014 0.111,-0.061C0.064,-0.109 0.041,-0.172 0.041,-0.25L0.041,-0.265C0.041,-0.318 0.051,-0.365 0.071,-0.406C0.091,-0.448 0.12,-0.48 0.157,-0.503C0.194,-0.527 0.235,-0.538 0.28,-0.538C0.352,-0.538 0.407,-0.515 0.447,-0.469C0.486,-0.423 0.505,-0.358 0.505,-0.274L0.505,-0.227L0.16,-0.227C0.164,-0.183 0.178,-0.148 0.204,-0.123C0.229,-0.098 0.262,-0.085 0.3,-0.085C0.355,-0.085 0.399,-0.107 0.433,-0.151L0.497,-0.09C0.476,-0.058 0.448,-0.034 0.412,-0.016C0.377,0.001 0.337,0.01 0.293,0.01ZM0.279,-0.443C0.247,-0.443 0.22,-0.431 0.2,-0.409C0.18,-0.386 0.168,-0.354 0.162,-0.313L0.388,-0.313L0.388,-0.322C0.386,-0.362 0.375,-0.392 0.356,-0.412C0.338,-0.433 0.312,-0.443 0.279,-0.443Z" style="fill-rule:nonzero;"/>
                    </g>
                </g>
                <g transform="matrix(887.12,892.419,-892.419,887.12,8055.42,8081.61)">
                    <g>
                        <rect x="0.068" y="-0.75" width="0.119" height="0.75"/>
                    </g>
                </g>
                <g transform="matrix(743.148,1015.44,-1015.44,743.148,8228.92,8224.54)">
                    <g>
                        <path d="M0.039,-0.269C0.039,-0.321 0.049,-0.367 0.069,-0.409C0.09,-0.45 0.119,-0.482 0.156,-0.505C0.193,-0.527 0.236,-0.538 0.284,-0.538C0.355,-0.538 0.413,-0.515 0.457,-0.469C0.502,-0.423 0.526,-0.362 0.529,-0.287L0.53,-0.259C0.53,-0.207 0.52,-0.16 0.5,-0.119C0.48,-0.078 0.451,-0.046 0.414,-0.024C0.377,-0.001 0.333,0.01 0.285,0.01C0.21,0.01 0.15,-0.015 0.106,-0.065C0.061,-0.114 0.039,-0.181 0.039,-0.263L0.039,-0.269ZM0.157,-0.259C0.157,-0.204 0.168,-0.162 0.191,-0.131C0.213,-0.1 0.245,-0.085 0.285,-0.085C0.325,-0.085 0.356,-0.101 0.378,-0.132C0.4,-0.163 0.412,-0.209 0.412,-0.269C0.412,-0.322 0.4,-0.365 0.377,-0.396C0.354,-0.427 0.323,-0.443 0.284,-0.443C0.245,-0.443 0.214,-0.427 0.191,-0.397C0.169,-0.366 0.157,-0.32 0.157,-0.259Z" style="fill-rule:nonzero;"/>
                    </g>
                </g>
                <g transform="matrix(494.915,1156.92,-1156.92,494.915,8605.53,8718.91)">
                    <g>
                        <path d="M0.523,-0.259C0.523,-0.177 0.505,-0.112 0.468,-0.063C0.431,-0.015 0.381,0.01 0.318,0.01C0.26,0.01 0.214,-0.009 0.179,-0.047L0.179,0.203L0.061,0.203L0.061,-0.528L0.17,-0.528L0.175,-0.475C0.21,-0.517 0.257,-0.538 0.317,-0.538C0.381,-0.538 0.432,-0.514 0.469,-0.466C0.505,-0.418 0.523,-0.351 0.523,-0.266L0.523,-0.259ZM0.405,-0.269C0.405,-0.322 0.395,-0.364 0.374,-0.395C0.353,-0.425 0.323,-0.441 0.284,-0.441C0.235,-0.441 0.2,-0.421 0.179,-0.381L0.179,-0.146C0.201,-0.105 0.236,-0.085 0.285,-0.085C0.322,-0.085 0.352,-0.1 0.373,-0.131C0.395,-0.161 0.405,-0.207 0.405,-0.269Z" style="fill-rule:nonzero;"/>
                    </g>
                </g>
                <g transform="matrix(238.987,1235.43,-1235.43,238.987,8855.62,9276.2)">
                    <g>
                        <path d="M0.293,0.01C0.218,0.01 0.157,-0.014 0.111,-0.061C0.064,-0.109 0.041,-0.172 0.041,-0.25L0.041,-0.265C0.041,-0.318 0.051,-0.365 0.071,-0.406C0.091,-0.448 0.12,-0.48 0.157,-0.503C0.194,-0.527 0.235,-0.538 0.28,-0.538C0.352,-0.538 0.407,-0.515 0.447,-0.469C0.486,-0.423 0.505,-0.358 0.505,-0.274L0.505,-0.227L0.16,-0.227C0.164,-0.183 0.178,-0.148 0.204,-0.123C0.229,-0.098 0.262,-0.085 0.3,-0.085C0.355,-0.085 0.399,-0.107 0.433,-0.151L0.497,-0.09C0.476,-0.058 0.448,-0.034 0.412,-0.016C0.377,0.001 0.337,0.01 0.293,0.01ZM0.279,-0.443C0.247,-0.443 0.22,-0.431 0.2,-0.409C0.18,-0.386 0.168,-0.354 0.162,-0.313L0.388,-0.313L0.388,-0.322C0.386,-0.362 0.375,-0.392 0.356,-0.412C0.338,-0.433 0.312,-0.443 0.279,-0.443Z" style="fill-rule:nonzero;"/>
                    </g>
                </g>
                <g transform="matrix(21.9449,1258.14,-1258.14,21.9449,8966.23,9839.83)">
                    <g>
                        <path d="M0.337,-0.42C0.322,-0.423 0.306,-0.424 0.289,-0.424C0.235,-0.424 0.198,-0.403 0.179,-0.361L0.179,-0L0.061,-0L0.061,-0.528L0.174,-0.528L0.177,-0.469C0.205,-0.515 0.245,-0.538 0.296,-0.538C0.313,-0.538 0.327,-0.536 0.338,-0.531L0.337,-0.42Z" style="fill-rule:nonzero;"/>
                    </g>
                </g>
                <g transform="matrix(-207.875,1241.04,-1241.04,-207.875,8966.91,10395.5)">
                    <g>
                        <rect x="0.035" y="-0.35" width="0.256" height="0.096"/>
                    </g>
                </g>
            </g>
            <g transform="matrix(4.34998,0,0,4.30419,-2375,710.248)">
                <rect x="783.448" y="657.066" width="1679.46" height="1697.32" style="fill:none;"/>
            </g>
        </g>
    </g>
</svg>
